…
```r
gapminder %>% 
  filter(year>1952) %>%
  select(country, year, pop) %>% 
  group_by(country) %>%
  arrange(desc(pop)) %>% 
  top_n(10)
```

```
## Selecting by pop
```

```
## # A tibble: 1,420 × 3
## # Groups:   country [142]
##    country  year        pop
##    <fct>   <int>      <int>
##  1 China    2007 1318683096
##  2 China    2002 1280400000
##  3 China    1997 1230075000
##  4 China    1992 1164970000
##  5 India    2007 1110396331
##  6 China    1987 1084035000
##  7 India    2002 1034172547
##  8 China    1982 1000281000
##  9 India    1997  959000000
## 10 China    1977  943455000
## # ℹ 1,410 more rows
```
…
