…
fisheries_tidy$catch <- as.numeric(fisheries_tidy$catch)
```

3. How many countries are represented in the data? Provide a count and list their names.

```r
fisheries_tidy %>% 
  count(country)
```

```
## # A tibble: 203 × 2
##    country                 n
##    <fct>               <int>
##  1 Albania               934
##  2 Algeria              1561
##  3 American Samoa        556
##  4 Angola               2119
##  5 Anguilla              129
##  6 Antigua and Barbuda   356
##  7 Argentina            3403
##  8 Aruba                 172
##  9 Australia            8183
## 10 Bahamas               423
## # ℹ 193 more rows
```

4. Refocus the data only to include country, isscaap_taxonomic_group, asfis_species_name, asfis_species_number, year, catch.

```r
fisheries_tidy %>% 
  select(country, isscaap_taxonomic_group, asfis_species_name, asfis_species_number, year, catch)
```

```
## # A tibble: 376,771 × 6
##    country isscaap_taxonomic_group asfis_species_name asfis_species_number  year
##    <fct>   <fct>                   <fct>              <fct>                <dbl>
##  1 Albania Sharks, rays, chimaeras Squatinidae        10903XXXXX            1995
##  2 Albania Sharks, rays, chimaeras Squatinidae        10903XXXXX            1996
##  3 Albania Sharks, rays, chimaeras Squatinidae        10903XXXXX            1997
##  4 Albania Sharks, rays, chimaeras Squatinidae        10903XXXXX            1998
##  5 Albania Sharks, rays, chimaeras Squatinidae        10903XXXXX            1999
##  6 Albania Sharks, rays, chimaeras Squatinidae        10903XXXXX            2000
##  7 Albania Sharks, rays, chimaeras Squatinidae        10903XXXXX            2001
##  8 Albania Sharks, rays, chimaeras Squatinidae        10903XXXXX            2002
##  9 Albania Sharks, rays, chimaeras Squatinidae        10903XXXXX            2003
## 10 Albania Sharks, rays, chimaeras Squatinidae        10903XXXXX            2004
## # ℹ 376,761 more rows
## # ℹ 1 more variable: catch <dbl>
```
…
```
## Warning: Returning more (or less) than 1 row per `summarise()` group was deprecated in
## dplyr 1.1.0.
## ℹ Please use `reframe()` instead.
## ℹ When switching from `summarise()` to `reframe()`, remember that `reframe()`
##   always returns an ungrouped data frame and adjust accordingly.
## Call `lifecycle::last_lifecycle_warnings()` to see where this warning was
## generated.
```

```
## # A tibble: 8,793 × 3
##    country                   year catch
##    <fct>                    <dbl> <dbl>
##  1 China                     2000  9068
##  2 Peru                      2000  5717
##  3 Russian Federation        2000  5065
##  4 Viet Nam                  2000  4945
##  5 Chile                     2000  4299
##  6 China                     2000  3288
##  7 China                     2000  2782
##  8 United States of America  2000  2438
##  9 China                     2000  1234
## 10 Philippines               2000   999
## # ℹ 8,783 more rows
```
…
```
## Warning: Returning more (or less) than 1 row per `summarise()` group was deprecated in
## dplyr 1.1.0.
## ℹ Please use `reframe()` instead.
## ℹ When switching from `summarise()` to `reframe()`, remember that `reframe()`
##   always returns an ungrouped data frame and adjust accordingly.
## Call `lifecycle::last_lifecycle_warnings()` to see where this warning was
## generated.
```

```
## # A tibble: 336 × 4
##    country             year asfis_species_name catch
##    <fct>              <dbl> <fct>              <dbl>
##  1 Morocco             1994 Sardina pilchardus   947
##  2 Morocco             1996 Sardina pilchardus   925
##  3 Spain               1996 Sardina pilchardus   912
##  4 Morocco             2000 Sardina pilchardus   859
##  5 Morocco             1990 Sardina pilchardus   845
##  6 Morocco             1991 Sardina pilchardus   827
##  7 Morocco             1998 Sardina pilchardus   723
##  8 Morocco             1993 Sardina pilchardus   710
##  9 Russian Federation  1992 Sardina pilchardus   627
## 10 Russian Federation  1991 Sardina pilchardus   579
## # ℹ 326 more rows
```
…
```
## Warning: Returning more (or less) than 1 row per `summarise()` group was deprecated in
## dplyr 1.1.0.
## ℹ Please use `reframe()` instead.
## ℹ When switching from `summarise()` to `reframe()`, remember that `reframe()`
##   always returns an ungrouped data frame and adjust accordingly.
## Call `lifecycle::last_lifecycle_warnings()` to see where this warning was
## generated.
```

```
## # A tibble: 80 × 4
##    country  year asfis_species_name catch
##    <fct>   <dbl> <fct>              <dbl>
##  1 India    2011 Cephalopoda           94
##  2 India    2010 Cephalopoda           93
##  3 India    2012 Cephalopoda           88
##  4 China    2008 Cephalopoda           86
##  5 China    2010 Cephalopoda           74
##  6 Italy    2012 Cephalopoda           66
##  7 India    2009 Cephalopoda           62
##  8 India    2009 Cephalopoda           61
##  9 India    2010 Cephalopoda           60
## 10 Spain    2008 Cephalopoda           57
## # ℹ 70 more rows
```

9. Which species had the highest catch total between 2008-2012? (hint: Osteichthyes is not a species)

```r
fisheries_tidy %>% 
  count(asfis_species_name, year, catch) %>% 
  filter(between(year, 2008, 2012)) %>% 
  filter(asfis_species_name!= "Osteichthyes") %>% 
  arrange(desc(catch))
```

```
## # A tibble: 30,157 × 4
##    asfis_species_name     year catch     n
##    <fct>                 <dbl> <dbl> <int>
##  1 Trichiurus lepturus    2011  8221     1
##  2 Theragra chalcogramma  2012  8188     1
##  3 Engraulis ringens      2008  7981     1
##  4 Clupea harengus        2008  7873     1
##  5 Clupea harengus        2009  7250     1
##  6 Engraulis ringens      2012  6880     1
##  7 Trichiurus lepturus    2010  6841     1
##  8 Engraulis ringens      2008  6748     1
##  9 Trichiurus lepturus    2012  6694     1
## 10 Theragra chalcogramma  2009  6532     1
## # ℹ 30,147 more rows
```
…
